<svg width="141" height="44" viewBox="0 0 141 44" fill="none" xmlns="http://www.w3.org/2000/svg">
<path d="M25.6 8.7002H12.3V19.7002H8.60001V24.7002H12.4V35.1002H25.6C39.1 32.8002 38.3 9.9002 25.6 8.7002ZM24.3 30.9002H17.4V24.4002H22.1V19.8002H17.4V13.6002H24.1C32.5 15.0002 32.3 29.6002 24.3 30.9002Z" fill="#FFB600"/>
<path d="M21.8 42.3002C32.9009 42.3002 41.9 33.2116 41.9 22.0002C41.9 10.7888 32.9009 1.7002 21.8 1.7002C10.6991 1.7002 1.70001 10.7888 1.70001 22.0002C1.70001 33.2116 10.6991 42.3002 21.8 42.3002Z" stroke="#FFB600" stroke-width="2" stroke-miterlimit="10"/>
<path d="M60.6 15.9002C62.3 15.9002 63.7 16.5002 64.8 17.7002C65.9 18.9002 66.5 20.4002 66.5 22.2002C66.5 24.0002 65.9 25.5002 64.8 26.7002C63.7 27.9002 62.3 28.5002 60.6 28.5002H55.7V15.9002H60.6ZM60.6 27.3002C62 27.3002 63.1 26.8002 64 25.8002C64.9 24.8002 65.3 23.6002 65.3 22.2002C65.3 20.8002 64.8 19.6002 64 18.6002C63.1 17.6002 62 17.1002 60.6 17.1002H57V27.3002H60.6ZM73.3 28.7002C72 28.7002 70.9 28.2002 69.9 27.3002C69 26.4002 68.5 25.3002 68.5 23.9002C68.5 22.6002 69 21.5002 69.9 20.6002C70.8 19.7002 72 19.2002 73.3 19.2002C74.6 19.2002 75.7 19.7002 76.6 20.7002C77.5 21.6002 78 22.7002 78 24.0002C78 25.3002 77.5 26.4002 76.6 27.4002C75.6 28.3002 74.5 28.7002 73.3 28.7002ZM73.3 27.6002C74.3 27.6002 75.1 27.3002 75.8 26.6002C76.5 25.9002 76.8 25.1002 76.8 24.1002C76.8 23.1002 76.5 22.3002 75.8 21.6002C75.1 20.9002 74.3 20.6002 73.3 20.6002C72.3 20.6002 71.5 20.9002 70.8 21.6002C70.1 22.3002 69.8 23.1002 69.8 24.1002C69.8 25.1002 70.1 25.9002 70.8 26.6002C71.5 27.2002 72.3 27.6002 73.3 27.6002ZM88.1 19.5002H89.3V28.1002C89.3 29.4002 88.8 30.4002 88 31.2002C87.1 31.9002 86.1 32.3002 84.8 32.3002C82.7 32.3002 81.3 31.6002 80.5 30.1002L81.5 29.5002C82 30.6002 83.1 31.1002 84.7 31.1002C86.8 31.1002 88 29.9002 88 28.1002V26.7002C87.2 28.0002 86 28.7002 84.4 28.7002C83.1 28.7002 82 28.2002 81.1 27.3002C80.2 26.4002 79.8 25.3002 79.8 24.0002C79.8 22.7002 80.2 21.6002 81.1 20.7002C82 19.8002 83.1 19.3002 84.4 19.3002C86 19.3002 87.2 20.0002 88 21.3002V19.5002H88.1ZM84.6 27.6002C85.6 27.6002 86.4 27.3002 87.1 26.6002C87.8 25.9002 88.1 25.1002 88.1 24.1002C88.1 23.1002 87.8 22.3002 87.1 21.6002C86.4 20.9002 85.6 20.6002 84.6 20.6002C83.6 20.6002 82.8 20.9002 82.1 21.6002C81.4 22.3002 81.1 23.1002 81.1 24.1002C81.1 25.1002 81.4 25.9002 82.1 26.6002C82.8 27.2002 83.6 27.6002 84.6 27.6002ZM99.6 20.7002C100.4 21.6002 100.8 22.8002 100.8 24.0002V24.6002H92.9C93.1 26.4002 94.6 27.6002 96.5 27.6002C97.9 27.6002 98.9 27.0002 99.4 26.1002L100.4 26.7002C99.6 28.0002 98.2 28.8002 96.4 28.8002C95 28.8002 93.8 28.3002 92.9 27.5002C92 26.6002 91.6 25.5002 91.6 24.1002C91.6 22.8002 92 21.6002 92.9 20.7002C93.8 19.8002 94.9 19.3002 96.3 19.3002C97.7 19.3002 98.8 19.8002 99.6 20.7002ZM93 23.4002H99.7C99.6 22.4002 99.2 21.7002 98.6 21.2002C98 20.7002 97.3 20.4002 96.5 20.4002C94.5 20.4002 93.3 21.7002 93 23.4002ZM104.5 26.8002C103.3 25.5002 102.6 24.0002 102.6 22.2002C102.6 20.4002 103.2 18.8002 104.5 17.6002C105.8 16.4002 107.3 15.7002 109.2 15.7002C111.5 15.7002 113.6 16.9002 114.7 18.8002L113.6 19.4002C112.8 17.9002 111.1 16.9002 109.3 16.9002C107.7 16.9002 106.4 17.4002 105.4 18.4002C104.4 19.4002 103.9 20.7002 103.9 22.2002C103.9 23.7002 104.4 24.9002 105.4 26.0002C106.4 27.0002 107.7 27.5002 109.3 27.5002C111.2 27.5002 112.8 26.5002 113.6 25.0002L114.7 25.6002C113.7 27.5002 111.6 28.7002 109.2 28.7002C107.5 28.7002 105.8 28.1002 104.5 26.8002ZM121.2 28.7002C119.9 28.7002 118.8 28.2002 117.8 27.3002C116.9 26.4002 116.4 25.3002 116.4 23.9002C116.4 22.6002 116.9 21.5002 117.8 20.6002C118.7 19.7002 119.9 19.2002 121.2 19.2002C122.5 19.2002 123.6 19.7002 124.5 20.6002C125.4 21.5002 125.9 22.6002 125.9 23.9002C125.9 25.2002 125.4 26.3002 124.5 27.3002C123.6 28.3002 122.6 28.7002 121.2 28.7002ZM121.2 27.6002C122.2 27.6002 123 27.3002 123.7 26.6002C124.4 25.9002 124.7 25.1002 124.7 24.1002C124.7 23.1002 124.4 22.3002 123.7 21.6002C123 20.9002 122.2 20.6002 121.2 20.6002C120.2 20.6002 119.4 20.9002 118.7 21.6002C118 22.3002 117.7 23.1002 117.7 24.1002C117.7 25.1002 118 25.9002 118.7 26.6002C119.3 27.2002 120.2 27.6002 121.2 27.6002ZM128.3 17.3002C128 17.0002 128 16.4002 128.3 16.1002C128.6 15.8002 129.2 15.8002 129.5 16.1002C129.8 16.4002 129.8 17.0002 129.5 17.3002C129.3 17.7002 128.8 17.7002 128.3 17.3002ZM128.3 28.5002V19.5002H129.5V28.5002H128.3ZM140.3 23.0002V28.5002H139.1V23.0002C139.1 21.4002 138.2 20.5002 136.7 20.5002C135 20.5002 133.8 21.6002 133.8 23.8002V28.5002H132.6V19.5002H133.8V20.9002C134.5 19.8002 135.5 19.3002 136.8 19.3002C139 19.3002 140.3 20.7002 140.3 23.0002Z" fill="#333333"/>
</svg>
